HA HK HQ HJ H10 SA SK SQ SJ S10
HA HK HQ HJ H10 SK SQ SJ S10 S9
SA SK SQ SJ S10 HA DA CA DA D2
HA DA CA DA D2 DK HK SK D4 H4
DK HK SK D4 H4 C4 C5 C7 C10 CQ
C4 C5 C7 C10 CQ HA D2 D3 D4 S5
HA D2 D3 D4 S5 C8 S8 H8 D3 D10 S2 C10
C8 S8 H8 D3 D10 C7 C6 C2 H2 H10 H7 H6
C7 C6 C2 H7 H6 H10 S10 D8 S7 C6 C7 SA D2
H10 D8 S7 C6 C7 S10 D10 H5 D5 CK CQ
HK SJ C9 C4 S2 HK SJ C9 C4 S2 HJ S2 S3
HK SJ C9 C4 S2 HA SJ C7 D5 S4 S5 H5 D7
HA HK HQ HJ H10 SA SK SJ C3 S10 DA
HA HK HQ HJ H10 S9 SK SJ C3 S10 DA
HA HK HQ HJ H10 H9 HK H2 H5 S9 H3
HA HK HQ HJ H10 H2 S4 D5 H10 S6 H3
H8 H9 H7 H6 H10 CK CQ C9 C10 CJ
H8 H9 HQ HJ H10 S8 SQ S9 S10 SJ
HA DA CA DA D2 DK HK SK CK H4
HA DA CA D3 D2 DK HK SK C9 H4 C5 C8
SA S2 S3 S4 S5 H3 H4 H5 H6 H7
SA S2 H3 S4 H5 HA H2 S3 H4 S5
SA S2 H3 S4 H5 HA H2 S3 H4 C5
SA HA DA D3 H3 SQ HQ DQ HJ SJ
SA HA D2 S2 HJ SK HK C6 S6 D5 D4
CK DK D7 S7 HJ SK HK C6 S6 D5 D4
CA DA D6 S7 HJ SA HA C7 S6 D3 D10 D9 D8
CA DA D6 S7 HJ SK HK C7 S6 D3 D10 D9 D8
CA DQ S10 H8 C4 HK SQ C10 D8 S4 C8 H4 D10
CA DQ S10 H8 C4 HA SQ C10 D8 S4 C8 H4 D10
SA SQ SJ S9 S8 HA HQ HJ H9 H8
CA CQ CJ C9 C8 HA HQ HJ H9 H7
CA CQ CJ C9 C8 HA HQ HJ H8 H7
CA CQ CJ C9 C8 HA HQ H10 H8 H7
CA CQ CJ C9 C8 HA H10 H9 H5 H6
CA CQ CJ C9 C8 HK HQ H10 H8 H3
